…
```r
library(cffr)
```


```r
library(tidyverse)

cran_packs <- as.data.frame(table(available.packages()[, "License"]))
cran_packs <- as_tibble(cran_packs) %>%
  select(LICENSE = Var1, n = Freq) %>%
  arrange(desc(n))

cran_packs
#> # A tibble: 166 x 2
#>    LICENSE                  n
#>    <fct>                <int>
#>  1 GPL (>= 2)            4352
#>  2 GPL-3                 4034
#>  3 MIT + file LICENSE    2942
#>  4 GPL-2                 2614
#>  5 GPL (>= 3)             935
#>  6 GPL                    523
#>  7 GPL-2 | GPL-3          339
#>  8 CC0                    188
#>  9 GPL-3 | file LICENSE   167
#> 10 LGPL-3                 152
#> # ... with 156 more rows
```
